[
    {
        "id": 1,
        "seq": 1,
        "name": "ライブボーナスドリンク（小）",
        "recoveryValue": 1,
        "assetBundleName": "dummy",
        "flavorText": "ライブボーナスを1回復する。"
    },
    {
        "id": 2,
        "seq": 2,
        "name": "ライブボーナスドリンク（大）",
        "recoveryValue": 10,
        "assetBundleName": "dummy",
        "flavorText": "ライブボーナスを10回復する。"
    },
    {
        "id": 3,
        "seq": 3,
        "name": "バレンタインチョコ",
        "recoveryValue": 10,
        "assetBundleName": "dummy",
        "flavorText": "ライブボーナスを10回復する。"
    },
    {
        "id": 4,
        "seq": 4,
        "name": "ホワイトデーマシュマロ",
        "recoveryValue": 10,
        "assetBundleName": "dummy",
        "flavorText": "ライブボーナスを10回復する。"
    },
    {
        "id": 5,
        "seq": 5,
        "name": "[限定]からあげクン レギュラー（タイアップ記念）",
        "recoveryValue": 10,
        "assetBundleName": "dummy",
        "flavorText": "ライブボーナスを10回復する。"
    },
    {
        "id": 6,
        "seq": 6,
        "name": "ハロウィンクッキー",
        "recoveryValue": 10,
        "assetBundleName": "dummy",
        "flavorText": "ライブボーナスを10回復する。"
    },
    {
        "id": 7,
        "seq": 7,
        "name": "ブリオッシュ",
        "recoveryValue": 10,
        "assetBundleName": "boost_item7",
        "flavorText": "ライブボーナスを10回復する。"
    },
    {
        "id": 8,
        "seq": 8,
        "name": "クリスマスケーキ",
        "recoveryValue": 10,
        "assetBundleName": "boost_item8",
        "flavorText": "ライブボーナスを10回復する。"
    },
    {
        "id": 9,
        "seq": 9,
        "name": "甘酒",
        "recoveryValue": 10,
        "assetBundleName": "boost_item9",
        "flavorText": "ライブボーナスを10回復する。"
    },
    {
        "id": 10,
        "seq": 10,
        "name": "[限定]カップヌードル",
        "recoveryValue": 10,
        "assetBundleName": "boost_item10",
        "flavorText": "ライブボーナスを10回復する。"
    },
    {
        "id": 11,
        "seq": 11,
        "name": "[限定]ポカリスエット",
        "recoveryValue": 10,
        "assetBundleName": "boost_item11",
        "flavorText": "ライブボーナスを10回復する。"
    },
    {
        "id": 12,
        "seq": 12,
        "name": "ネギ",
        "recoveryValue": 1,
        "assetBundleName": "boost_item12",
        "flavorText": "ライブボーナスを1回復する。"
    },
    {
        "id": 13,
        "seq": 13,
        "name": "[ミク16周年記念]お祝いミクケーキ",
        "recoveryValue": 10,
        "assetBundleName": "boost_item13",
        "flavorText": "ライブボーナスを10回復する。"
    },
    {
        "id": 14,
        "seq": 14,
        "name": "ハローキティのりんご",
        "recoveryValue": 10,
        "assetBundleName": "boost_item14",
        "flavorText": "ライブボーナスを10回復する。"
    }
]