[
    {
        "characterId": 1,
        "characterVoice": "野口瑠璃子",
        "birthday": "8月11日",
        "height": "162cm",
        "school": "宮益坂女子学園",
        "schoolYear": "２ーA",
        "hobby": "ミクの歌を聴くこと、\n育てているサボテンを\n眺める",
        "specialSkill": "りんごの皮むき",
        "favoriteFood": "焼きそばパン",
        "hatedFood": "グリーンピース",
        "weak": "絶叫アトラクション",
        "introduction": "クールに見えて、本当は友人想いの優しい少女。幼馴染みの咲希、穂波、志歩と共にLeo/needというバンドを結成し、念願のプロ入りを果たした。Leo/needではギターボーカルを担当。オリジナル楽曲の作詞も行いつつ、最近は『初音ミク』を使った作曲にも挑戦している。",
        "scenarioId": "self_ichika_2nd"
    },
    {
        "characterId": 2,
        "characterVoice": "礒部花凜",
        "birthday": "5月9日",
        "height": "160cm",
        "school": "宮益坂女子学園",
        "schoolYear": "２ーB",
        "hobby": "ファッション・メイク動画視\n聴、ビーズアクセサリー作り",
        "specialSkill": "ヘアアレンジ、お手玉",
        "favoriteFood": "スナック菓子",
        "hatedFood": "おかゆ",
        "weak": "一人ぼっち",
        "introduction": "いつも明るく、笑顔を絶やさないムードメーカー。Leo/needのキーボード担当。病気がちで学校に通うこともままならなかった経験から、みんなと一緒にいることや青春を謳歌すること、そして苦しむ人の心に寄り添うことを大切にしており、楽曲制作にもその想いを生かしている。",
        "scenarioId": "self_saki_2nd"
    },
    {
        "characterId": 3,
        "characterVoice": "上田麗奈",
        "birthday": "10月27日",
        "height": "166cm",
        "school": "宮益坂女子学園",
        "schoolYear": "２ーA",
        "hobby": "飼い犬の散歩、家庭菜園",
        "specialSkill": "家事全般、水泳",
        "favoriteFood": "アップルパイ",
        "hatedFood": "チーズ",
        "weak": "絵を描くこと",
        "introduction": "文武両道の優等生で、包み込むような優しさを持つ。Leo/needのドラム担当。人を傷つけたくないという思いから、何かを決断することに悩みがちだったが、バンド活動をとおして少しだけ決断する勇気を抱けるようになる。現在はその精神の強さでLeo/needを支えている。",
        "scenarioId": "self_honami_2nd"
    },
    {
        "characterId": 4,
        "characterVoice": "中島由貴",
        "birthday": "1月8日",
        "height": "159cm",
        "school": "宮益坂女子学園",
        "schoolYear": "２ーB",
        "hobby": "好きなガールズバンドの\nライブに行く、\nベースの練習・演奏",
        "specialSkill": "書道",
        "favoriteFood": "ラーメン、ハンバーグ",
        "hatedFood": "豆腐",
        "weak": "姉",
        "introduction": "Leo/needのベース担当。音楽に対してストイックで、馴れ合いを嫌う一匹狼のため周りに誤解されることも多かったが、プロになりたいという夢に向かって共に走り、その願いを叶えてくれたLeo/needのみんなのことを、とても大切に思っている。",
        "scenarioId": "self_shiho_2nd"
    },
    {
        "characterId": 5,
        "characterVoice": "小倉唯",
        "birthday": "4月14日",
        "height": "159cm",
        "school": "宮益坂女子学園",
        "schoolYear": "２ーD",
        "hobby": "振りコピ、日記をつけること、\n動物の世話",
        "specialSkill": "キャッチフレーズを\nつけること",
        "favoriteFood": "サーモン",
        "hatedFood": "ブロッコリー",
        "weak": "落ち着いた行動",
        "introduction": "純粋な頑張り屋。MORE MORE JUMP！の中で唯一のアイドル未経験者だったが、多くの活動をとおしてファンにも受け入れられ、念願のワンマンライブの開催を果たした。今はドームライブができるような国民的アイドルになることを目標に活動を続けている。",
        "scenarioId": "self_minori_2nd"
    },
    {
        "characterId": 6,
        "characterVoice": "吉岡茉祐",
        "birthday": "10月5日",
        "height": "163cm",
        "school": "宮益坂女子学園",
        "schoolYear": "２ーD",
        "hobby": "ペンギングッズあつめ",
        "specialSkill": "バスケットボール",
        "favoriteFood": "甘いもの全般",
        "hatedFood": "ワサビ",
        "weak": "怠けること",
        "introduction": "国民的アイドルグループ『ASRUN』に所属していた元トップアイドル。現在はMORE MORE JUMP！のワンマンライブをきっかけに、さらにアイドル活動の意欲に火がつく。そしてみのりと共に単位制へと編入し、もう一度アイドル活動に全力を注ぐことを決める。",
        "scenarioId": "self_haruka_2nd"
    },
    {
        "characterId": 7,
        "characterVoice": "降幡愛",
        "birthday": "3月19日",
        "height": "156cm",
        "school": "宮益坂女子学園",
        "schoolYear": "３ーE",
        "hobby": "アイドル研究、ショッピング",
        "specialSkill": "料理、子供の面倒を見ること",
        "favoriteFood": "和菓子",
        "hatedFood": "レバー",
        "weak": "ネコ（アレルギー）",
        "introduction": "アイドルグループ『QT』の元メンバー。アイドルに対しての強い情熱や誇りを武器に、メンバーに喝をいれる存在として活躍している。企画力やスケジュール管理能力も高く、事務所を持たないMORE MORE JUMP！に欠かせない業務も積極的にこなしている。",
        "scenarioId": "self_airi_2nd"
    },
    {
        "characterId": 8,
        "characterVoice": "本泉莉奈",
        "birthday": "12月6日",
        "height": "168cm",
        "school": "宮益坂女子学園",
        "schoolYear": "３ーE",
        "hobby": "読書、散歩",
        "specialSkill": "弓道、刺繍",
        "favoriteFood": "うどん、湯葉",
        "hatedFood": "辛いもの全般",
        "weak": "地図を読むこと、機械の操作",
        "introduction": "今でも人気を博しているアイドルグループ『Cheerful＊Days』の元センター。かつてのメンバー達とうまくいかず脱退してしまったことにわだかまりを持っていたが、MORE MORE JUMP！初のテレビ出演での共演をきっかけに少しだけ和解し、前向きに進んでいる。",
        "scenarioId": "self_shizuku_2nd"
    },
    {
        "characterId": 9,
        "characterVoice": "秋奈",
        "birthday": "3月2日",
        "height": "156cm",
        "school": "宮益坂女子学園",
        "schoolYear": "２ーA",
        "hobby": "父親が飼っている\nヘビのお世話",
        "specialSkill": "写真",
        "favoriteFood": "桃まん、ごま団子",
        "hatedFood": "酢の物",
        "weak": "人前に立つこと",
        "introduction": "内気な性格だったが、仲間との切磋琢磨と、伝説のイベントを行ったメンバーのひとり・大河の修行により、自分の歌に自信を持てるようになった。一度師匠の大河に打ち負かされ悔しい思いをするものの、その気持ちを胸に立ち上がり、改めて『RAD WEEKEND』を超えることを宣言する。",
        "scenarioId": "self_kohane_2nd"
    },
    {
        "characterId": 10,
        "characterVoice": "鷲見友美ジェナ",
        "birthday": "7月26日",
        "height": "160cm",
        "school": "神山高校",
        "schoolYear": "２ーA",
        "hobby": "ミント栽培",
        "specialSkill": "コーヒーや紅茶を淹れること",
        "favoriteFood": "ラムレーズンのアイス",
        "hatedFood": "トマト",
        "weak": "幽霊、怪談話",
        "introduction": "明るく裏表のない、WEEKEND GARAGEの看板娘。父達がおこなった伝説のイベント『RAD WEEKEND』を超えるイベントをつくるため活動している中、憧れの人物・凪の秘密を知り衝撃を受ける。しかし父から凪の想いを聞いて再起し、改めて伝説を超えることを誓う。",
        "scenarioId": "self_an_2nd"
    },
    {
        "characterId": 11,
        "characterVoice": "今井文也",
        "birthday": "11月12日",
        "height": "176cm",
        "school": "神山高校",
        "schoolYear": "２ーA",
        "hobby": "ファッションコーディネート",
        "specialSkill": "ヒューマンビートボックス",
        "favoriteFood": "パンケーキ、チーズケーキ",
        "hatedFood": "にんじん",
        "weak": "犬",
        "introduction": "伝説のイベント『RAD WEEKEND』を超えることを夢見て、血の滲むような練習を重ねる努力家。『RAD WEEKEND』の裏にあった秘密の重さに一度は立ち止まりそうになるものの、夢にかける強い想いで奮起し、挑み続けることを決める。",
        "scenarioId": "self_akito_2nd"
    },
    {
        "characterId": 12,
        "characterVoice": "伊東健人",
        "birthday": "5月25日",
        "height": "179cm",
        "school": "神山高校",
        "schoolYear": "２ーB",
        "hobby": "読書",
        "specialSkill": "ピアノ、バイオリン",
        "favoriteFood": "コーヒー、クッキー",
        "hatedFood": "イカ",
        "weak": "高い所",
        "introduction": "クラシックの名家に生まれた秀才。伝説のイベント『RAD WEEKEND』超えを目指し、作曲にも挑戦している。伝説の真のレベルの高さを知り圧倒されるものの、これまでの経験を胸に、仲間とともに壁を越え、その先の景色を見ることを望むようになる。",
        "scenarioId": "self_touya_2nd"
    },
    {
        "characterId": 13,
        "characterVoice": "廣瀬大介",
        "birthday": "5月17日",
        "height": "173cm",
        "school": "神山高校",
        "schoolYear": "３ーC",
        "hobby": "ミュージカル観劇、\n衣装づくり",
        "specialSkill": "どんな時も即カッコいい\nポーズができる、ピアノ",
        "favoriteFood": "アクアパッツァ、生姜焼き",
        "hatedFood": "ピーマン",
        "weak": "虫（特に多足）",
        "introduction": "世界一のスターを目指す、ワンダーランズ×ショウタイムの座長。キャストとして様々な経験を積むなか、広い世界を見て学びを深めたいという想いを強く抱き、ついに仲間達と共にワンダーステージを飛び出し、次のステップへ踏み出すことを決める。",
        "scenarioId": "self_tsukasa_2nd"
    },
    {
        "characterId": 14,
        "characterVoice": "木野日菜",
        "birthday": "9月9日",
        "height": "152cm",
        "school": "宮益坂女子学園",
        "schoolYear": "２ーB",
        "hobby": "ご近所探検",
        "specialSkill": "アクロバット、\nなんでも美味しく食べられる",
        "favoriteFood": "鯛焼き",
        "hatedFood": "なし！",
        "weak": "夕暮れ",
        "introduction": "底抜けに明るい、天真爛漫な性格。祖父の遺したフェニックスワンダーランドを守ることが夢で、夢を追いかけるワンダーランズ×ショウタイムのみんなとはいずれ別れが来ることを覚悟していた。だが、兄達や仲間達に背中を押され、修業のため外へ足を踏み出すことを決める。",
        "scenarioId": "self_emu_2nd"
    },
    {
        "characterId": 15,
        "characterVoice": "Machico",
        "birthday": "7月20日",
        "height": "156cm",
        "school": "神山高校",
        "schoolYear": "２ーA",
        "hobby": "対戦ゲーム、\nミュージカル・映画鑑賞",
        "specialSkill": "歌、機械の操作全般",
        "favoriteFood": "グレープフルーツ",
        "hatedFood": "ミント味の食べ物",
        "weak": "人通りの多い場所",
        "introduction": "世界で活躍するミュージカル俳優を目指す少女。ある公演の練習では歌への自信が折られてしまうが、それをきっかけに、歌にかける強い想いを再確認することができた。今後は仲間達と共に広い世界で、多くのことを吸収しようと意気込んでいる。",
        "scenarioId": "self_nene_2nd"
    },
    {
        "characterId": 16,
        "characterVoice": "土岐隼一",
        "birthday": "6月24日",
        "height": "182cm",
        "school": "神山高校",
        "schoolYear": "３ーC",
        "hobby": "ショーの演出を考えること、\nバルーンアート",
        "specialSkill": "発明",
        "favoriteFood": "ラムネ菓子",
        "hatedFood": "野菜全般",
        "weak": "掃除、単純作業",
        "introduction": "マイペースな天才演出家。かつてはひとりでショーを行っていたが、自身の演出を受け入れてくれるワンダーランズ×ショウタイムに居場所を見出し、夢のために離れ離れにならずにすむ道を模索。結果、全員でショーを続けながら夢を追い続けるという最高のフィナーレへ導いた。",
        "scenarioId": "self_rui_2nd"
    },
    {
        "characterId": 17,
        "characterVoice": "楠木ともり",
        "birthday": "2月10日",
        "height": "154cm",
        "school": "通信制高校",
        "schoolYear": "ー",
        "hobby": "音楽を探して聴くこと、\n映画や漫画、アニメ、\n美術作品を見ること",
        "specialSkill": "感覚で時間を計れる",
        "favoriteFood": "カップ麺、缶詰",
        "hatedFood": "パクチーや納豆など、\nにおいが独特な物",
        "weak": "直射日光、家事全般",
        "introduction": "『25時、ナイトコードで。』の作曲担当。自分の作った曲にまふゆが反応することが増え嬉しく思っていたが、ある時、まふゆの母親から「まふゆから離れてほしい」と要求されてしまう。しかしその言動や振る舞いに違和感を覚え、要求を跳ねのけ、まふゆと一緒にいることを選ぶ。",
        "scenarioId": "self_kanade_2nd"
    },
    {
        "characterId": 18,
        "characterVoice": "田辺留依",
        "birthday": "1月27日",
        "height": "162cm",
        "school": "宮益坂女子学園",
        "schoolYear": "３ーB",
        "hobby": "アクアリウム",
        "specialSkill": "英会話",
        "favoriteFood": "お母さんの手料理",
        "hatedFood": "わからない",
        "weak": "わからない",
        "introduction": "『25時、ナイトコードで。』の作詞担当。母親に『いい子』であることを求められ続け自分を見失っていたが、音楽活動をとおしてサークルを居場所だと認識するようになる。しかしその居場所さえ奪われそうになり、ついに限界を感じ家を飛び出して奏に助けを求めた。",
        "scenarioId": "self_mafuyu_2nd"
    },
    {
        "characterId": 19,
        "characterVoice": "鈴木みのり",
        "birthday": "4月30日",
        "height": "158cm",
        "school": "神山高校（夜間定時制）",
        "schoolYear": "３ーD",
        "hobby": "絵を描くこと、\n自撮り＆SNSにアップ、\nエゴサーチ",
        "specialSkill": "ファッション小物の\nリサーチ、料理の食材当て",
        "favoriteFood": "パンケーキ、チーズケーキ",
        "hatedFood": "にんじん",
        "weak": "朝起きること",
        "introduction": "『25時、ナイトコードで。』のイラスト担当。絵の才能のなさに苦しみながらも努力し、酷評されても描き続ける心の強さを持つ。はっきりとした性格で、母親に意思を伝えないまふゆにイラついていたものの、出会った時からの変化は感じており、仲間として大切に見守っている。",
        "scenarioId": "self_ena_2nd"
    },
    {
        "characterId": 20,
        "characterVoice": "佐藤日向",
        "birthday": "8月27日",
        "height": "165cm",
        "school": "神山高校",
        "schoolYear": "２ーB",
        "hobby": "動画素材集め、コラージュ",
        "specialSkill": "洋服のアレンジ",
        "favoriteFood": "カレーライス、\nフライドポテト",
        "hatedFood": "きのこ系",
        "weak": "熱い食べ物",
        "introduction": "『25時、ナイトコードで。』の動画担当。母親と関係が悪化していくまふゆのことを心配していたが、瑞希自身、自分の秘密と向きあえずにいる現状から無力感を覚えていた。だが、その経験から逃げることで得られるものがあることにも気づき、まふゆに「逃げていい」と助言する。",
        "scenarioId": "self_mizuki_2nd"
    },
    {
        "characterId": 21,
        "birthday": "8月31日",
        "height": "158cm",
        "introduction": "ブルーグリーンのツインテールが特徴的な少女バーチャル・シンガー。ハツラツとした明るく可愛い歌声で様々なジャンルの歌を歌う。バーチャル・シンガーの中でも、世代を問わず世界的に名前が知られている。",
        "scenarioId": "self_miku_2nd"
    },
    {
        "characterId": 22,
        "birthday": "12月27日",
        "height": "152cm",
        "introduction": "大きなリボンを着けたブロンドボブヘアが特徴的な少女バーチャル・シンガー。鏡音レンとはツイン・ボーカル。キュートで元気な見た目にぴったりな、チャーミングな歌声を持っている。",
        "scenarioId": "self_rin_2nd"
    },
    {
        "characterId": 23,
        "birthday": "12月27日",
        "height": "156cm",
        "introduction": "短く後ろに結ばれたブロンドヘアが特徴的な少年バーチャル・シンガー。鏡音リンとはツイン・ボーカル。少年らしい芯のあるパワフルな歌声の中に感情表現の豊かさもかね備えている。",
        "scenarioId": "self_len_2nd"
    },
    {
        "characterId": 24,
        "birthday": "1月30日",
        "height": "162cm",
        "introduction": "ピンクのロングヘアが特徴的な女性バーチャル・シンガー。落ちついた物腰によく合う柔らかい歌声を持つ一方、時には情熱的な歌声を聴かせることも。バイリンガルで、日本語と英語で歌うことができる。",
        "scenarioId": "self_luka_2nd"
    },
    {
        "characterId": 25,
        "birthday": "11月5日",
        "height": "167cm",
        "introduction": "栗色のショートボブと、赤いショート丈のトップスとミニスカートが特徴的な女性バーチャル・シンガー。安定感のある抜群の歌唱力と、女性ならではの優しく温かみのある声質を持っている。",
        "scenarioId": "self_meiko_2nd"
    },
    {
        "characterId": 26,
        "birthday": "2月17日",
        "height": "175cm",
        "introduction": "若干外ハネしたダークブルーの髪と、青いロングマフラーの衣装が特徴的な男性バーチャル・シンガー。清涼感のある素直な歌声で、男性らしい厚みのある低音から伸びのある高音まで歌いわける。",
        "scenarioId": "self_kaito_2nd"
    }
]