[
    {
        "playLevel": 1,
        "scoreCoefficient": 1.0
    },
    {
        "playLevel": 2,
        "scoreCoefficient": 1.0
    },
    {
        "playLevel": 3,
        "scoreCoefficient": 1.0
    },
    {
        "playLevel": 4,
        "scoreCoefficient": 1.0
    },
    {
        "playLevel": 5,
        "scoreCoefficient": 1.0
    },
    {
        "playLevel": 6,
        "scoreCoefficient": 1.005
    },
    {
        "playLevel": 7,
        "scoreCoefficient": 1.01
    },
    {
        "playLevel": 8,
        "scoreCoefficient": 1.015
    },
    {
        "playLevel": 9,
        "scoreCoefficient": 1.02
    },
    {
        "playLevel": 10,
        "scoreCoefficient": 1.025
    },
    {
        "playLevel": 11,
        "scoreCoefficient": 1.03
    },
    {
        "playLevel": 12,
        "scoreCoefficient": 1.035
    },
    {
        "playLevel": 13,
        "scoreCoefficient": 1.04
    },
    {
        "playLevel": 14,
        "scoreCoefficient": 1.045
    },
    {
        "playLevel": 15,
        "scoreCoefficient": 1.05
    },
    {
        "playLevel": 16,
        "scoreCoefficient": 1.055
    },
    {
        "playLevel": 17,
        "scoreCoefficient": 1.06
    },
    {
        "playLevel": 18,
        "scoreCoefficient": 1.065
    },
    {
        "playLevel": 19,
        "scoreCoefficient": 1.07
    },
    {
        "playLevel": 20,
        "scoreCoefficient": 1.075
    },
    {
        "playLevel": 21,
        "scoreCoefficient": 1.08
    },
    {
        "playLevel": 22,
        "scoreCoefficient": 1.085
    },
    {
        "playLevel": 23,
        "scoreCoefficient": 1.09
    },
    {
        "playLevel": 24,
        "scoreCoefficient": 1.095
    },
    {
        "playLevel": 25,
        "scoreCoefficient": 1.1
    },
    {
        "playLevel": 26,
        "scoreCoefficient": 1.105
    },
    {
        "playLevel": 27,
        "scoreCoefficient": 1.11
    },
    {
        "playLevel": 28,
        "scoreCoefficient": 1.115
    },
    {
        "playLevel": 29,
        "scoreCoefficient": 1.12
    },
    {
        "playLevel": 30,
        "scoreCoefficient": 1.125
    },
    {
        "playLevel": 31,
        "scoreCoefficient": 1.13
    },
    {
        "playLevel": 32,
        "scoreCoefficient": 1.135
    },
    {
        "playLevel": 33,
        "scoreCoefficient": 1.14
    },
    {
        "playLevel": 34,
        "scoreCoefficient": 1.145
    },
    {
        "playLevel": 35,
        "scoreCoefficient": 1.15
    },
    {
        "playLevel": 36,
        "scoreCoefficient": 1.155
    },
    {
        "playLevel": 37,
        "scoreCoefficient": 1.16
    },
    {
        "playLevel": 38,
        "scoreCoefficient": 1.165
    },
    {
        "playLevel": 39,
        "scoreCoefficient": 1.17
    },
    {
        "playLevel": 40,
        "scoreCoefficient": 1.175
    }
]